%YAML 1.1
%TAG !u! tag:unity3d.com,2011:
--- !u!74 &7400000
AnimationClip:
  m_ObjectHideFlags: 0
  m_CorrespondingSourceObject: {fileID: 0}
  m_PrefabInstance: {fileID: 0}
  m_PrefabAsset: {fileID: 0}
  m_Name: CrouchAnimation
  serializedVersion: 6
  m_Legacy: 0
  m_Compressed: 0
  m_UseHighQualityCurve: 1
  m_RotationCurves: []
  m_CompressedRotationCurves: []
  m_EulerCurves: []
  m_PositionCurves: []
  m_ScaleCurves: []
  m_FloatCurves: []
  m_PPtrCurves:
  - curve:
    - time: 0
      value: {fileID: 21300000, guid: f7197762e37753e478c1bd878acae87b, type: 3}
    - time: 0.083333336
      value: {fileID: 21300000, guid: 6537098a30872ff4e971e430a7f6e8c5, type: 3}
    - time: 0.16666667
      value: {fileID: 21300000, guid: 9da2161d84bd6eb4fb490ee5b0219ddd, type: 3}
    - time: 0.25
      value: {fileID: 21300000, guid: fc94cf2717ab9ce40b32e4e4b7a508b8, type: 3}
    - time: 0.33333334
      value: {fileID: 21300000, guid: e8030f07a7220624a87d003f5e10e3e7, type: 3}
    - time: 0.41666666
      value: {fileID: 21300000, guid: e93faddc24067e741aaa9d929a211be1, type: 3}
    - time: 0.5
      value: {fileID: 21300000, guid: 027efcf204b277e4db2d01dec2a18675, type: 3}
    - time: 0.5833333
      value: {fileID: 21300000, guid: 66436b1ad428da642aa87c2a74aa5e0c, type: 3}
    - time: 0.6666667
      value: {fileID: 21300000, guid: 2ae22f3055102be4b99c6a051f776e45, type: 3}
    - time: 0.75
      value: {fileID: 21300000, guid: eca4f9e3e1cfd51449e25c19c0a90def, type: 3}
    - time: 0.8333333
      value: {fileID: 21300000, guid: fdf4cfcdc19e9b5409126489e012827a, type: 3}
    - time: 0.9166667
      value: {fileID: 21300000, guid: e7a9080aa8c26444fb949ad46ec1d715, type: 3}
    - time: 1
      value: {fileID: 21300000, guid: 958d7f90d9d2f334e962b3afa1c392b5, type: 3}
    - time: 1.0833334
      value: {fileID: 21300000, guid: 4a39a841fe34b854bb593ce555f6bde1, type: 3}
    - time: 1.1666666
      value: {fileID: 21300000, guid: e96f8dda04873e1499757e9bef243c25, type: 3}
    - time: 1.25
      value: {fileID: 21300000, guid: e75d21ae3070ecc43a4047a30856c55a, type: 3}
    - time: 1.3333334
      value: {fileID: 21300000, guid: bd7c6d8a816889644aff567737a9e52f, type: 3}
    - time: 1.4166666
      value: {fileID: 21300000, guid: 5ab3d416d62105d49a241daf0022c02c, type: 3}
    - time: 1.5
      value: {fileID: 21300000, guid: c2e65142c4771b345a3c5db2d74e6929, type: 3}
    - time: 1.5833334
      value: {fileID: 21300000, guid: 6cd2a36f056504b4d814eeec9c09aa13, type: 3}
    - time: 1.6666666
      value: {fileID: 21300000, guid: 9ab873b7245345542858e39e7eeedf23, type: 3}
    - time: 1.75
      value: {fileID: 21300000, guid: 8557105c6ed2c054abd7a0e448283a93, type: 3}
    - time: 1.8333334
      value: {fileID: 21300000, guid: bcf1298575e481a48bed3832aa009087, type: 3}
    - time: 1.9166666
      value: {fileID: 21300000, guid: 935bcd4546e9e7a4c9fe8d5b50f008fc, type: 3}
    - time: 2
      value: {fileID: 21300000, guid: f61ad2e7573703240bdbc5c2097bae49, type: 3}
    - time: 2.0833333
      value: {fileID: 21300000, guid: 256d18309bee63c42896c50fb2b951e2, type: 3}
    - time: 2.1666667
      value: {fileID: 21300000, guid: 3c14882f509f2b6488faf35a887d20f0, type: 3}
    - time: 2.25
      value: {fileID: 21300000, guid: 4bdf78f682713d64e971bc43b75a9acb, type: 3}
    - time: 2.3333333
      value: {fileID: 21300000, guid: 62cb67883a0958e458cbe1f4e87396de, type: 3}
    - time: 2.4166667
      value: {fileID: 21300000, guid: bcc4dc8f9fb5d3347a0fd181469b052e, type: 3}
    - time: 2.5
      value: {fileID: 21300000, guid: abcdde030b593b246ae348da913ef186, type: 3}
    - time: 2.5833333
      value: {fileID: 21300000, guid: a46b44e89f813504ab9ba4cccd1c9cbe, type: 3}
    - time: 2.6666667
      value: {fileID: 21300000, guid: 1bbc6308600ddb04aa84f5e2cb85af6c, type: 3}
    attribute: m_Sprite
    path: 
    classID: 212
    script: {fileID: 0}
  m_SampleRate: 12
  m_WrapMode: 0
  m_Bounds:
    m_Center: {x: 0, y: 0, z: 0}
    m_Extent: {x: 0, y: 0, z: 0}
  m_ClipBindingConstant:
    genericBindings:
    - serializedVersion: 2
      path: 0
      attribute: 0
      script: {fileID: 0}
      typeID: 212
      customType: 23
      isPPtrCurve: 1
    pptrCurveMapping:
    - {fileID: 21300000, guid: f7197762e37753e478c1bd878acae87b, type: 3}
    - {fileID: 21300000, guid: 6537098a30872ff4e971e430a7f6e8c5, type: 3}
    - {fileID: 21300000, guid: 9da2161d84bd6eb4fb490ee5b0219ddd, type: 3}
    - {fileID: 21300000, guid: fc94cf2717ab9ce40b32e4e4b7a508b8, type: 3}
    - {fileID: 21300000, guid: e8030f07a7220624a87d003f5e10e3e7, type: 3}
    - {fileID: 21300000, guid: e93faddc24067e741aaa9d929a211be1, type: 3}
    - {fileID: 21300000, guid: 027efcf204b277e4db2d01dec2a18675, type: 3}
    - {fileID: 21300000, guid: 66436b1ad428da642aa87c2a74aa5e0c, type: 3}
    - {fileID: 21300000, guid: 2ae22f3055102be4b99c6a051f776e45, type: 3}
    - {fileID: 21300000, guid: eca4f9e3e1cfd51449e25c19c0a90def, type: 3}
    - {fileID: 21300000, guid: fdf4cfcdc19e9b5409126489e012827a, type: 3}
    - {fileID: 21300000, guid: e7a9080aa8c26444fb949ad46ec1d715, type: 3}
    - {fileID: 21300000, guid: 958d7f90d9d2f334e962b3afa1c392b5, type: 3}
    - {fileID: 21300000, guid: 4a39a841fe34b854bb593ce555f6bde1, type: 3}
    - {fileID: 21300000, guid: e96f8dda04873e1499757e9bef243c25, type: 3}
    - {fileID: 21300000, guid: e75d21ae3070ecc43a4047a30856c55a, type: 3}
    - {fileID: 21300000, guid: bd7c6d8a816889644aff567737a9e52f, type: 3}
    - {fileID: 21300000, guid: 5ab3d416d62105d49a241daf0022c02c, type: 3}
    - {fileID: 21300000, guid: c2e65142c4771b345a3c5db2d74e6929, type: 3}
    - {fileID: 21300000, guid: 6cd2a36f056504b4d814eeec9c09aa13, type: 3}
    - {fileID: 21300000, guid: 9ab873b7245345542858e39e7eeedf23, type: 3}
    - {fileID: 21300000, guid: 8557105c6ed2c054abd7a0e448283a93, type: 3}
    - {fileID: 21300000, guid: bcf1298575e481a48bed3832aa009087, type: 3}
    - {fileID: 21300000, guid: 935bcd4546e9e7a4c9fe8d5b50f008fc, type: 3}
    - {fileID: 21300000, guid: f61ad2e7573703240bdbc5c2097bae49, type: 3}
    - {fileID: 21300000, guid: 256d18309bee63c42896c50fb2b951e2, type: 3}
    - {fileID: 21300000, guid: 3c14882f509f2b6488faf35a887d20f0, type: 3}
    - {fileID: 21300000, guid: 4bdf78f682713d64e971bc43b75a9acb, type: 3}
    - {fileID: 21300000, guid: 62cb67883a0958e458cbe1f4e87396de, type: 3}
    - {fileID: 21300000, guid: bcc4dc8f9fb5d3347a0fd181469b052e, type: 3}
    - {fileID: 21300000, guid: abcdde030b593b246ae348da913ef186, type: 3}
    - {fileID: 21300000, guid: a46b44e89f813504ab9ba4cccd1c9cbe, type: 3}
    - {fileID: 21300000, guid: 1bbc6308600ddb04aa84f5e2cb85af6c, type: 3}
  m_AnimationClipSettings:
    serializedVersion: 2
    m_AdditiveReferencePoseClip: {fileID: 0}
    m_AdditiveReferencePoseTime: 0
    m_StartTime: 0
    m_StopTime: 2.75
    m_OrientationOffsetY: 0
    m_Level: 0
    m_CycleOffset: 0
    m_HasAdditiveReferencePose: 0
    m_LoopTime: 1
    m_LoopBlend: 0
    m_LoopBlendOrientation: 0
    m_LoopBlendPositionY: 0
    m_LoopBlendPositionXZ: 0
    m_KeepOriginalOrientation: 0
    m_KeepOriginalPositionY: 1
    m_KeepOriginalPositionXZ: 0
    m_HeightFromFeet: 0
    m_Mirror: 0
  m_EditorCurves: []
  m_EulerEditorCurves: []
  m_HasGenericRootTransform: 0
  m_HasMotionFloatCurves: 0
  m_Events: []
