%YAML 1.1
%TAG !u! tag:unity3d.com,2011:
--- !u!74 &7400000
AnimationClip:
  m_ObjectHideFlags: 0
  m_CorrespondingSourceObject: {fileID: 0}
  m_PrefabInstance: {fileID: 0}
  m_PrefabAsset: {fileID: 0}
  m_Name: HitAnimation
  serializedVersion: 6
  m_Legacy: 0
  m_Compressed: 0
  m_UseHighQualityCurve: 1
  m_RotationCurves: []
  m_CompressedRotationCurves: []
  m_EulerCurves: []
  m_PositionCurves: []
  m_ScaleCurves: []
  m_FloatCurves: []
  m_PPtrCurves:
  - curve:
    - time: 0
      value: {fileID: 21300000, guid: 4c4189201341478408002f2c77d13599, type: 3}
    - time: 0.083333336
      value: {fileID: 21300000, guid: 9bea9d37b9f32714f8016a8d5f5ce6d8, type: 3}
    - time: 0.16666667
      value: {fileID: 21300000, guid: 47c53fa15592f5a42ad18cdc7ba357c8, type: 3}
    - time: 0.25
      value: {fileID: 21300000, guid: 98f1112c8b891094da7bcfca16bf61e7, type: 3}
    - time: 0.33333334
      value: {fileID: 21300000, guid: 7aeb1017247f5954595e0e140adf4ebf, type: 3}
    - time: 0.41666666
      value: {fileID: 21300000, guid: 0ea349889cf07914fab687fd72f0dfbe, type: 3}
    - time: 0.5
      value: {fileID: 21300000, guid: 43486fc83730590429c6136993b0357e, type: 3}
    - time: 0.5833333
      value: {fileID: 21300000, guid: 171207906b4e10644af0e17ef8e15332, type: 3}
    - time: 0.6666667
      value: {fileID: 21300000, guid: dd0b9f77ad88d244b8d1594580192529, type: 3}
    - time: 0.75
      value: {fileID: 21300000, guid: 40a760ec2648c5a41ad5b003ed4bd716, type: 3}
    - time: 0.8333333
      value: {fileID: 21300000, guid: a076b00fff7ed8647a82faa67b953345, type: 3}
    - time: 0.9166667
      value: {fileID: 21300000, guid: 466ad38a2726b75409c15b5a52a857f5, type: 3}
    - time: 1
      value: {fileID: 21300000, guid: ce993fcafb915304483a2ab14281051e, type: 3}
    - time: 1.0833334
      value: {fileID: 21300000, guid: 203532f75951251449cad246ec61a4cf, type: 3}
    - time: 1.1666666
      value: {fileID: 21300000, guid: e0a7d4eb924349e4593de30768784540, type: 3}
    - time: 1.25
      value: {fileID: 21300000, guid: 49cb0a2c259f93445ba8ce9ea19ecda4, type: 3}
    - time: 1.3333334
      value: {fileID: 21300000, guid: 0a6e363e84840bd48a356fe96cee8143, type: 3}
    - time: 1.4166666
      value: {fileID: 21300000, guid: 234a6637974b4894a9a04526c321e14a, type: 3}
    - time: 1.5
      value: {fileID: 21300000, guid: 0cb1f4e9c92a13a44802c623e610c982, type: 3}
    - time: 1.5833334
      value: {fileID: 21300000, guid: 7fd564b3f9d97c74b9a529a6dbb89329, type: 3}
    attribute: m_Sprite
    path: 
    classID: 212
    script: {fileID: 0}
  m_SampleRate: 12
  m_WrapMode: 0
  m_Bounds:
    m_Center: {x: 0, y: 0, z: 0}
    m_Extent: {x: 0, y: 0, z: 0}
  m_ClipBindingConstant:
    genericBindings:
    - serializedVersion: 2
      path: 0
      attribute: 0
      script: {fileID: 0}
      typeID: 212
      customType: 23
      isPPtrCurve: 1
    pptrCurveMapping:
    - {fileID: 21300000, guid: 4c4189201341478408002f2c77d13599, type: 3}
    - {fileID: 21300000, guid: 9bea9d37b9f32714f8016a8d5f5ce6d8, type: 3}
    - {fileID: 21300000, guid: 47c53fa15592f5a42ad18cdc7ba357c8, type: 3}
    - {fileID: 21300000, guid: 98f1112c8b891094da7bcfca16bf61e7, type: 3}
    - {fileID: 21300000, guid: 7aeb1017247f5954595e0e140adf4ebf, type: 3}
    - {fileID: 21300000, guid: 0ea349889cf07914fab687fd72f0dfbe, type: 3}
    - {fileID: 21300000, guid: 43486fc83730590429c6136993b0357e, type: 3}
    - {fileID: 21300000, guid: 171207906b4e10644af0e17ef8e15332, type: 3}
    - {fileID: 21300000, guid: dd0b9f77ad88d244b8d1594580192529, type: 3}
    - {fileID: 21300000, guid: 40a760ec2648c5a41ad5b003ed4bd716, type: 3}
    - {fileID: 21300000, guid: a076b00fff7ed8647a82faa67b953345, type: 3}
    - {fileID: 21300000, guid: 466ad38a2726b75409c15b5a52a857f5, type: 3}
    - {fileID: 21300000, guid: ce993fcafb915304483a2ab14281051e, type: 3}
    - {fileID: 21300000, guid: 203532f75951251449cad246ec61a4cf, type: 3}
    - {fileID: 21300000, guid: e0a7d4eb924349e4593de30768784540, type: 3}
    - {fileID: 21300000, guid: 49cb0a2c259f93445ba8ce9ea19ecda4, type: 3}
    - {fileID: 21300000, guid: 0a6e363e84840bd48a356fe96cee8143, type: 3}
    - {fileID: 21300000, guid: 234a6637974b4894a9a04526c321e14a, type: 3}
    - {fileID: 21300000, guid: 0cb1f4e9c92a13a44802c623e610c982, type: 3}
    - {fileID: 21300000, guid: 7fd564b3f9d97c74b9a529a6dbb89329, type: 3}
  m_AnimationClipSettings:
    serializedVersion: 2
    m_AdditiveReferencePoseClip: {fileID: 0}
    m_AdditiveReferencePoseTime: 0
    m_StartTime: 0
    m_StopTime: 1.6666667
    m_OrientationOffsetY: 0
    m_Level: 0
    m_CycleOffset: 0
    m_HasAdditiveReferencePose: 0
    m_LoopTime: 1
    m_LoopBlend: 0
    m_LoopBlendOrientation: 0
    m_LoopBlendPositionY: 0
    m_LoopBlendPositionXZ: 0
    m_KeepOriginalOrientation: 0
    m_KeepOriginalPositionY: 1
    m_KeepOriginalPositionXZ: 0
    m_HeightFromFeet: 0
    m_Mirror: 0
  m_EditorCurves: []
  m_EulerEditorCurves: []
  m_HasGenericRootTransform: 0
  m_HasMotionFloatCurves: 0
  m_Events: []
