%YAML 1.1
%TAG !u! tag:unity3d.com,2011:
--- !u!74 &7400000
AnimationClip:
  m_ObjectHideFlags: 0
  m_CorrespondingSourceObject: {fileID: 0}
  m_PrefabInstance: {fileID: 0}
  m_PrefabAsset: {fileID: 0}
  m_Name: MeleeAnimation
  serializedVersion: 6
  m_Legacy: 0
  m_Compressed: 0
  m_UseHighQualityCurve: 1
  m_RotationCurves: []
  m_CompressedRotationCurves: []
  m_EulerCurves: []
  m_PositionCurves: []
  m_ScaleCurves: []
  m_FloatCurves: []
  m_PPtrCurves:
  - curve:
    - time: 0
      value: {fileID: 21300000, guid: 8fb59631eb3899740b8b282f4a36c9c9, type: 3}
    - time: 0.083333336
      value: {fileID: 21300000, guid: d5485ad0ab26a304d9b37ce6213e8f31, type: 3}
    - time: 0.16666667
      value: {fileID: 21300000, guid: 1bf7362fc6ff9074296db58936a6e8da, type: 3}
    - time: 0.25
      value: {fileID: 21300000, guid: 59b9c75b2986d2549a7814c44f2ee2eb, type: 3}
    - time: 0.33333334
      value: {fileID: 21300000, guid: efa31f36d538fd14b94df40970674080, type: 3}
    - time: 0.41666666
      value: {fileID: 21300000, guid: 3587849daceb590489b05d6a82b75107, type: 3}
    - time: 0.5
      value: {fileID: 21300000, guid: d18a181abb4254b46afa78ed3ec4acda, type: 3}
    - time: 0.5833333
      value: {fileID: 21300000, guid: c88904ae828501147874f5a497e8fac3, type: 3}
    attribute: m_Sprite
    path: 
    classID: 212
    script: {fileID: 0}
  m_SampleRate: 12
  m_WrapMode: 0
  m_Bounds:
    m_Center: {x: 0, y: 0, z: 0}
    m_Extent: {x: 0, y: 0, z: 0}
  m_ClipBindingConstant:
    genericBindings:
    - serializedVersion: 2
      path: 0
      attribute: 0
      script: {fileID: 0}
      typeID: 212
      customType: 23
      isPPtrCurve: 1
    pptrCurveMapping:
    - {fileID: 21300000, guid: 8fb59631eb3899740b8b282f4a36c9c9, type: 3}
    - {fileID: 21300000, guid: d5485ad0ab26a304d9b37ce6213e8f31, type: 3}
    - {fileID: 21300000, guid: 1bf7362fc6ff9074296db58936a6e8da, type: 3}
    - {fileID: 21300000, guid: 59b9c75b2986d2549a7814c44f2ee2eb, type: 3}
    - {fileID: 21300000, guid: efa31f36d538fd14b94df40970674080, type: 3}
    - {fileID: 21300000, guid: 3587849daceb590489b05d6a82b75107, type: 3}
    - {fileID: 21300000, guid: d18a181abb4254b46afa78ed3ec4acda, type: 3}
    - {fileID: 21300000, guid: c88904ae828501147874f5a497e8fac3, type: 3}
  m_AnimationClipSettings:
    serializedVersion: 2
    m_AdditiveReferencePoseClip: {fileID: 0}
    m_AdditiveReferencePoseTime: 0
    m_StartTime: 0
    m_StopTime: 0.6666666
    m_OrientationOffsetY: 0
    m_Level: 0
    m_CycleOffset: 0
    m_HasAdditiveReferencePose: 0
    m_LoopTime: 1
    m_LoopBlend: 0
    m_LoopBlendOrientation: 0
    m_LoopBlendPositionY: 0
    m_LoopBlendPositionXZ: 0
    m_KeepOriginalOrientation: 0
    m_KeepOriginalPositionY: 1
    m_KeepOriginalPositionXZ: 0
    m_HeightFromFeet: 0
    m_Mirror: 0
  m_EditorCurves: []
  m_EulerEditorCurves: []
  m_HasGenericRootTransform: 0
  m_HasMotionFloatCurves: 0
  m_Events: []
